<svg xmlns="http://www.w3.org/2000/svg" xmlns:xlink="http://www.w3.org/1999/xlink" width="27" height="27" viewBox="0 0 27 27">
    <defs>
        <path id="5kvl7kexaa" d="M0 0L27 0 27 27 0 27z"/>
    </defs>
    <g fill="none" fill-rule="evenodd">
        <g>
            <g>
                <mask id="mzl26ip3lb" fill="#fff">
                    <use xlink:href="#5kvl7kexaa"/>
                </mask>
                <path fill="#ADADBD" d="M17.24 10.416c0 1.728-1.562 2.978-2.058 3.364-1.011.79-1.03 1.342-1.03 2.297 0 .35-.183.754-1.084.754-.754 0-1.01-.276-1.01-1.231 0-1.581.698-2.335 1.23-2.794.607-.515 1.637-1.085 1.637-2.078 0-.845-.736-1.25-1.655-1.25-1.875 0-1.47 1.416-2.463 1.416-.496 0-1.103-.331-1.103-1.048 0-.993 1.14-2.463 3.621-2.463 2.353 0 3.916 1.305 3.916 3.033zm-2.738 9.099c0 .754-.625 1.415-1.416 1.415-.79 0-1.397-.661-1.397-1.415 0-.772.625-1.416 1.397-1.416.773 0 1.416.644 1.416 1.416zM13.5 24.89H2.11V13.5c0-6.295 5.094-11.39 11.39-11.39 6.295 0 11.39 5.094 11.39 11.39 0 6.295-5.094 11.39-11.39 11.39zM13.5 0C6.039 0 0 6.038 0 13.5v12.445C0 26.528.472 27 1.055 27H13.5C20.961 27 27 20.962 27 13.5 27 6.039 20.962 0 13.5 0z" mask="url(#mzl26ip3lb)"/>
            </g>
        </g>
    </g>
</svg>
