// Jest Snapshot v1, https://goo.gl/fbAQLP

exports[`VoteBallot component should match snapshot 1`] = `
<div
  className="vote-ballot container-fluid"
>
  <div
    className="row"
  >
    <div
      className="vote-ballot__label col"
    >
      01/01/70
       - 
      01/01/70
    </div>
  </div>
  <div
    className="row"
  >
    <div
      className="col"
    >
      <h1>
        Ballot #
        01
      </h1>
    </div>
    <div
      className="text-end col"
    >
      <img
        alt="pending"
        className="vote-ballot__icon"
        src="pending.svg"
      />
    </div>
  </div>
  <div
    className="vote-ballot__result-cards row"
  >
    <div
      className="col"
    >
      <div
        className="asset-card asset-card--pending"
      >
        <div
          className="asset-card__title"
        >
          Market winner
        </div>
        <div
          className="asset-card__label"
        >
          TBA 
          01/01/70
        </div>
      </div>
    </div>
  </div>
  <div
    className="row"
  >
    <div
      className="vote-ballot__label col"
    >
      My Ballot
    </div>
  </div>
  <div
    className="row"
  >
    <div
      className="col"
    >
      <div
        className="asset-list asset-list--empty vote-form-asset-list vote-ballot__asset-list"
      >
        List is empty
      </div>
    </div>
  </div>
</div>
`;
