// Jest Snapshot v1, https://goo.gl/fbAQLP

exports[`AssetListItem component should match snapshot 1`] = `
<div
  className="asset-list-item container"
  symbol="mock"
>
  <div
    className="row"
  >
    <div
      className="align-self-center col-auto"
    >
      <img
        alt=""
        className="asset-list-item__icon"
        src="mock.png"
      />
    </div>
    <div
      className="align-self-center col"
    >
      <div
        className="row"
      >
        <div
          className="text-start col"
        >
          <div
            className="asset-list-item__name"
          >
            My Name
          </div>
          <div
            className="asset-list-item__symbol"
          >
            mock
          </div>
        </div>
      </div>
    </div>
  </div>
</div>
`;
