// Jest Snapshot v1, https://goo.gl/fbAQLP

exports[`HowItWorksPage component should match snapshot 1`] = `
Array [
  <div
    className="container"
  >
    <div
      className="row"
    >
      <div
        className="text-end col"
      >
        <a
          className="btn btn-link"
          href="/vote"
          onClick={[Function]}
        >
          Skip tutorial &gt;&gt;
        </a>
      </div>
    </div>
  </div>,
  <div
    className="page how-it-works-page container-fluid"
  >
    <div
      className="row"
    >
      <div
        className="col-lg-12 col-12"
      >
        <div
          className="container"
        >
          <div
            className="row"
          >
            <div
              className="col"
            >
              <h1
                className="page__title"
              >
                How to play the vote markets
              </h1>
            </div>
          </div>
        </div>
        <div
          className="page__left-content"
        >
          <div
            className="container-fluid"
          >
            <div
              className="how-it-works-page-contained-row row"
            >
              <div
                className="col"
              >
                <div
                  className="container"
                >
                  <div
                    className="row"
                  >
                    <div
                      className="col-md-7"
                    >
                      <p
                        className="how-it-works-page__intro"
                      >
                        The finance.vote vote markets are live. Here you can learn the step by step process of casting your quadratic votes on-chain, and making market predictions that have the potential to earn you a share of the $FVT reward pool.
                      </p>
                      <div
                        className="how-it-works-page-button-group"
                      >
                        <a
                          className="btn btn-secondary"
                          href="/vote"
                          onClick={[Function]}
                        >
                          Start voting
                        </a>
                        <a
                          className="btn btn-outline-secondary"
                          href="https://financedotvote.medium.com/finance-vote-how-to-play-the-vote-markets-1ca9a7866e11"
                          rel="noopener noreferrer"
                          target="_blank"
                        >
                          Learn more
                        </a>
                      </div>
                    </div>
                    <div
                      className="col-md-5"
                    >
                      <div
                        className="how-it-works-page__container1"
                      >
                        You will need an $FVT Decentralised Identity Token to play, you can mint one using $FVT here
                      </div>
                    </div>
                  </div>
                </div>
              </div>
            </div>
            <div
              className="how-it-works-page-contained-row how-it-works-page__requirements row"
            >
              <div
                className="col"
              >
                <div
                  className="container"
                >
                  <div
                    className="row"
                  >
                    <div
                      className="col"
                    >
                      <div
                        className="how-it-works-page-requirement__icon"
                      >
                        <img
                          alt=""
                          src="metamask.svg"
                        />
                      </div>
                      <p
                        className="how-it-works-page-requirement__content"
                      >
                        You will need Metamask to connect with the app. Make sure to select the account which is holding your $FVT Decentralised Identity Token.
                      </p>
                    </div>
                    <div
                      className="col"
                    >
                      <div
                        className="how-it-works-page-requirement__icon"
                      >
                        <img
                          alt=""
                          src="research.svg"
                        />
                      </div>
                      <p
                        className="how-it-works-page-requirement__content"
                      >
                        Always research the tokens in the token lists to make informed judgements on the future potential of their market value.
                      </p>
                    </div>
                    <div
                      className="col"
                    >
                      <div
                        className="how-it-works-page-requirement__icon"
                      >
                        <div
                          className="how-it-works-page__votes-cost-equation how-it-works-page__container1"
                        >
                          Votes² = $V cost
                        </div>
                      </div>
                      <p
                        className="how-it-works-page-requirement__content"
                      >
                        $V Power is the amount of vote power you have to spend.
                        <br />
                        Votes costs the square of the vote number e.g. 5 votes = 5 x 5 = 25
                      </p>
                    </div>
                  </div>
                </div>
              </div>
            </div>
            <div
              className="how-it-works-page-contained-row how-it-works-page__step1 row"
            >
              <div
                className="col"
              >
                <div
                  className="container"
                >
                  <div
                    className="row"
                  >
                    <div
                      className="col-md-6"
                    >
                      <div
                        className="how-it-works-page-title"
                      >
                        <h3>
                          Step 1
                        </h3>
                        <h2>
                          Connect your wallet
                        </h2>
                      </div>
                      <p>
                        If your metamask doesn’t automatically connect to our application.
                      </p>
                      <p>
                        Hit 
                        <span
                          className="highlight"
                        >
                          "Connect Wallet"
                        </span>
                      </p>
                      <p>
                        Metamask will pop up and you will need to approve the application.
                      </p>
                      <p>
                        Select which account you would like to connect with the application. Make sure to select the account which is holding your Decentralised Identity Token.
                      </p>
                      <p>
                        Hit 
                        <span
                          className="highlight"
                        >
                          "Connect"
                        </span>
                      </p>
                    </div>
                    <div
                      className="how-it-works-page__image-group col-md-6"
                    >
                      <img
                        alt=""
                        src="connect-with-metamask.png"
                      />
                      <img
                        alt=""
                        src="confirm-connection-with-metamask.png"
                      />
                    </div>
                  </div>
                </div>
              </div>
            </div>
            <div
              className="how-it-works-page-contained-row how-it-works-page__step2 row"
            >
              <div
                className="col"
              >
                <div
                  className="container"
                >
                  <div
                    className="row"
                  >
                    <div
                      className="how-it-works-page__voting-screen col"
                    >
                      <div
                        className="how-it-works-page-title"
                      >
                        <h3>
                          Step 2
                        </h3>
                        <h2>
                          Get familiar with the voting screen
                        </h2>
                      </div>
                      <div
                        className="how-it-works-page__container-group container-fluid"
                      >
                        <div
                          className="how-it-works-page__container2 row"
                        >
                          <div
                            className="col-md-5"
                          >
                            <img
                              alt=""
                              src="identity-selector.svg"
                            />
                          </div>
                          <div
                            className="col-md-7"
                          >
                            Select an Identity from the dropdown. $V Balance is the amount of vote power you have to spend with your selected identity.
                          </div>
                        </div>
                        <div
                          className="how-it-works-page__container2 row"
                        >
                          <div
                            className="col-md-5"
                          >
                            Time left, vote start and vote end date: how long you have left to vote in the voting window.
                          </div>
                          <div
                            className="text-end col-md-7"
                          >
                            <img
                              alt=""
                              src="countdown.svg"
                            />
                          </div>
                        </div>
                        <div
                          className="how-it-works-page__container2 row"
                        >
                          <div
                            className="col-md-5"
                          >
                            <img
                              alt=""
                              src="reward-pool.svg"
                            />
                          </div>
                          <div
                            className="col-md-7"
                          >
                            Reward Pool: how much $FVT will be shared across the winners of this tournament round.
                          </div>
                        </div>
                        <div
                          className="how-it-works-page__container2 row"
                        >
                          <div
                            className="col-md-6"
                          >
                            Market Close, is the date that you will be able to claim your winnings and when token performance is settled from an on-chain oracle.
                          </div>
                          <div
                            className="text-end col-md-6"
                          >
                            <img
                              alt=""
                              src="market-close.svg"
                            />
                          </div>
                        </div>
                      </div>
                    </div>
                  </div>
                </div>
              </div>
            </div>
            <div
              className="how-it-works-page-contained-row how-it-works-page__step3 row"
            >
              <div
                className="col"
              >
                <div
                  className="container"
                >
                  <div
                    className="row"
                  >
                    <div
                      className="col-md-6"
                    >
                      <div
                        className="how-it-works-page-title"
                      >
                        <h3>
                          Step 3
                        </h3>
                        <h2>
                          Place your votes
                        </h2>
                      </div>
                      <p>
                        Place your votes by changing the values in the $Vote boxes
                      </p>
                      <p>
                        The amount of $V spent is the square of your votes i.e: Votes
                        <sup>
                          2
                        </sup>
                        = $V
                      </p>
                      <p>
                        For example, 5 Votes = 5 x 5 = 5² = 25 $V
                      </p>
                      <p>
                        Rebalance your $V balance if you overspend. A zero $V balance is optimal, but not necessary.
                      </p>
                      <p>
                        Once you’re happy with your choices.
                        <br />
                        Hit 
                        <span
                          className="highlight"
                        >
                          "VOTE"
                        </span>
                      </p>
                    </div>
                    <div
                      className="text-end col-md-6"
                    >
                      <img
                        alt=""
                        src="place-votes.png"
                        style={
                          Object {
                            "width": "80%",
                          }
                        }
                      />
                    </div>
                  </div>
                </div>
              </div>
            </div>
            <div
              className="how-it-works-page-contained-row how-it-works-page__step4 row"
            >
              <div
                className="col"
              >
                <div
                  className="container"
                >
                  <div
                    className="row"
                  >
                    <div
                      className="col-md-4"
                    >
                      <img
                        alt=""
                        src="confirm-vote-transaction.png"
                        style={
                          Object {
                            "width": "100%",
                          }
                        }
                      />
                    </div>
                    <div
                      className="col-md-8"
                    >
                      <div
                        className="how-it-works-page-title"
                      >
                        <h3>
                          Step 4
                        </h3>
                        <h2>
                          Confirm your transaction
                        </h2>
                      </div>
                      <p>
                        Metamask will open automatically and present you with the option to confirm your transaction.
                      </p>
                      <p>
                        Gas fees are part of the game. There’s no such thing as a free lunch. Feel free to experiment with gas fees. The more items you pick in the list, the higher the gas fees are.
                      </p>
                    </div>
                  </div>
                </div>
              </div>
            </div>
            <div
              className="how-it-works-page__step5 row"
            >
              <div
                className="text-center col"
              >
                <div
                  className="container"
                >
                  <div
                    className="row"
                  >
                    <div
                      className="col"
                    >
                      <div
                        className="how-it-works-page-title"
                      >
                        <h3>
                          Step 5
                        </h3>
                        <h2>
                          Your vote has been submitted
                        </h2>
                      </div>
                      <p
                        className="highlight"
                      >
                        Rejoice in the splendour of decentralised quadratic voting as your transaction is mined and committed to the blockchain for eternity!
                      </p>
                      <p>
                        Wait patiently for the markets to do their thing and keep an eye out for market close to see if your choices are correct. If you are, you will be able to claim your $FVT and new voting power when you return.
                      </p>
                      <div
                        className="how-it-works-page-button-group"
                      >
                        <a
                          className="btn btn-secondary"
                          href="/vote"
                          onClick={[Function]}
                        >
                          Start voting
                        </a>
                        <a
                          className="btn btn-outline-secondary"
                          href="https://financedotvote.medium.com/finance-vote-how-to-play-the-vote-markets-1ca9a7866e11"
                          rel="noopener noreferrer"
                          target="_blank"
                        >
                          Learn more
                        </a>
                      </div>
                    </div>
                  </div>
                </div>
              </div>
            </div>
            <div
              className="how-it-works-page__step6 row"
            >
              <div
                className="col"
              >
                <div
                  className="container"
                >
                  <div
                    className="how-it-works-page-title"
                  >
                    <h2>
                      Understanding the Vote / Market Window
                    </h2>
                  </div>
                  <div
                    className="row"
                  >
                    <div
                      className="col-md-6"
                    >
                      <h4>
                        Vote window
                      </h4>
                      <p>
                        In the vote window, you have a period of time (usually 1 week) to submit your vote, allocating your preferred market ordering. When this window closes no more votes are submittable.
                      </p>
                    </div>
                    <div
                      className="col-md-6"
                    >
                      <h4>
                        Market window
                      </h4>
                      <p>
                        Here, your predictions play out in the market. At the closing block of the market window, a snapshot of the top gaining token is determined by a market oracle and is compared against the consensus state.
                      </p>
                    </div>
                  </div>
                  <div
                    className="row"
                  >
                    <div
                      className="text-center col"
                    >
                      <img
                        alt=""
                        src="market-windows.svg"
                        style={
                          Object {
                            "width": "100%",
                          }
                        }
                      />
                      <br />
                      <br />
                      <br />
                      <a
                        className="btn btn-primary"
                        href="https://f646e629-e6ab-436e-b4b5-ad62237799a8.filesusr.com/ugd/2f63aa_acbd8518e6cb4b20ae956ef661f85335.pdf"
                        rel="noopener noreferrer"
                        target="_blank"
                      >
                        Read the whitepaper
                      </a>
                    </div>
                  </div>
                </div>
              </div>
            </div>
          </div>
        </div>
      </div>
    </div>
  </div>,
]
`;
