{
   "name":"Finance.Vote BSC Winners Token List 1",
   "timestamp":"2020-10-30T12:00:15+00:00",
   "keywords":[
      "finance.vote",
      "defi",
      "prediction markets"
   ],
   "version":{
      "major":0,
      "minor":0,
      "patch":0
   },
   "chainId": 56,
   "tokens":[
      {
         "address": "0xa767f745331D267c7751297D982b050c93985627",
         "symbol": "ADA",
         "name": "Cardano",
         "decimals": 8
      },
      {
         "address": "0x43d80f616DAf0b0B42a928EeD32147dC59027D41",
         "symbol": "BCH",
         "name": "Bitcoin Cash",
         "decimals": 8
      },
      {
         "address": "0x0567F2323251f0Aab15c8dFb1967E4e8A7D42aeE",
         "symbol": "BNB",
         "name": "Binance Coin",
         "decimals": 8
      },
      {
         "address": "0xcBb98864Ef56E9042e7d2efef76141f15731B82f",
         "symbol": "BUSD",
         "name": "Binance USD",
         "decimals": 8
      },
      {
         "address": "0xC333eb0086309a16aa7c8308DfD32c8BBA0a2592",
         "symbol": "DOT",
         "name": "Polkadot",
         "decimals": 8
      },
      {
         "address": "0x9ef1B8c0E4F7dc8bF5719Ea496883DC6401d5b2e",
         "symbol": "ETH",
         "name": "Ethereum",
         "decimals": 8
      },
      {
         "address": "0xE5dbFD9003bFf9dF5feB2f4F445Ca00fb121fb83",
         "symbol": "FIL",
         "name": "Filecoin",
         "decimals": 8
      },
      {
         "address": "0x74E72F37A8c415c8f1a98Ed42E78Ff997435791D",
         "symbol": "LTC",
         "name": "Litecoin",
         "decimals": 8
      },
      {
         "address": "0xF4C5e535756D11994fCBB12Ba8adD0192D9b88be",
         "symbol": "TRX",
         "name": "Tron",
         "decimals": 8
      },
      {
         "address": "0x93A67D414896A280bF8FFB3b389fE3686E014fda",
         "symbol": "XRP",
         "name": "Ripple",
         "decimals": 8
      }
   ],
   "logoURI":"ipfs://QmPPpzLsiHqTyjj4zdjKxybsyHGZBSPrh1uVAfGLtGN3WU"
}